<svg xmlns="http://www.w3.org/2000/svg" viewBox="0 0 50 50" width="15px" height="15px" baseProfile="basic">
    <rect x="7" y="4" fill="#BBDEFB" width="34" height="40"/>
    <g fill="#2196F3">
        <rect x="13" y="26" width="4" height="4"/>
        <rect x="13" y="18" width="4" height="4"/>
        <rect x="13" y="34" width="4" height="4"/>
        <rect x="13" y="10" width="4" height="4"/>
        <rect x="21" y="26" width="14" height="4"/>
        <rect x="21" y="18" width="14" height="4"/>
        <rect x="21" y="34" width="14" height="4"/>
        <rect x="21" y="10" width="14" height="4"/>
    </g>
</svg>