id;name;amount;amountWeightedConverted;stage;lastStage;probability;leadSource;closeDate;description;contactRole;createdAt;modifiedAt;concecutivo;ready;documentosNecesarios;epprequerido;areatrabajo;equipoAIntervenir;libranza;finesdesemana;tiempoRequerido;supervisor;electrico;soldadorPailero;ayudante;otros;comentarios;materialesNecesarios;fechaDeNegociacin;amountCurrency;amountConverted;accountId;accountName;contactsColumns;contactId;contactName;campaignId;campaignName;originalLeadId;originalLeadName;createdById;createdByName;modifiedById;modifiedByName;assignedUserId;assignedUserName;fotos2Types
656a401bc6de1dd94;"SUMINISTRO-E INSTALACION MATERIAL ELECTRICO DESDE CHILLER A EMBARCADERO";;;Levantamiento;Levantamiento;10;;2023-12-11;;;"2023-12-01 20:20:43";"2023-12-01 20:20:43";00796;;[];[];;;;;;1;0;;;;;;;;;627ebc3f025339ce6;Citrofrut;null;;;;;;;5ff69cc4e359f82b8;"Enrique Martinez";;;5ff69cc4e359f82b8;"Enrique Martinez";null
6569082696c373c85;"FABRICACIÓN DE PUERTAS DE INSPECCIÓN PARA LA DC 06 Y 07 DERECHA";;;Levantamiento;Levantamiento;10;Partner;2023-12-04;;;"2023-11-30 22:09:42";"2023-11-30 22:23:54";00794;;[];[];;;;;;1;0;;;;;;;;;5ff65b1c3a52d37e3;Cargill;null;5ffced62afca41f41;"Eloy Gutierrez";;;;;5ff69cc4e359f82b8;"Enrique Martinez";623cc74b7a6ac09f7;"Eduardo Espinosa";623cc74b7a6ac09f7;"Eduardo Espinosa";null
65675e244735ff5e3;"Tolva para Walinga";;;Economica;Economica;30;;2023-11-30;;;"2023-11-29 15:52:04";"2023-11-30 20:59:44";00793;;[];[];;;;;;1;0;;;;;;;;;5ff65b1c3a52d37e3;Cargill;null;;;;;;;5ff69cc4e359f82b8;"Enrique Martinez";623cc74b7a6ac09f7;"Eduardo Espinosa";623cc74b7a6ac09f7;"Eduardo Espinosa";null
65675df1d1dc2223b;"Tolva para Bazooka";;;Economica;Economica;30;;2023-11-30;;;"2023-11-29 15:51:13";"2023-11-30 20:59:53";00792;;[];[];;;;;;1;0;;;;;;;;;5ff65b1c3a52d37e3;Cargill;null;;;;;;;5ff69cc4e359f82b8;"Enrique Martinez";623cc74b7a6ac09f7;"Eduardo Espinosa";623cc74b7a6ac09f7;"Eduardo Espinosa";null
6564d6124273bf945;"Levantamiento Electrico Incubadora Tuxtla";;;Levantamiento;Levantamiento;10;;2023-11-28;;;"2023-11-27 17:46:58";"2023-11-27 17:46:58";00791;;[];[];;;;;;1;0;;;;;;;;;61de126a0e90950dd;"San Antonio";null;;;;;;;5ff69cc4e359f82b8;"Enrique Martinez";;;5ff69cc4e359f82b8;"Enrique Martinez";null
656255fe7c9822358;"Mantenimiento a muro lado este de oficinas administrativas";;;Economica;Economica;30;Partner;2023-11-27;;;"2023-11-25 20:15:58";"2023-11-30 00:21:48";00790;;[];[];"Oficinas Administrativas";;;1;;1;0;;;;;;;;;5ff65b1c3a52d37e3;Cargill;null;5ffdc4650283cd158;"Esteban Baez";;;;;623cc74b7a6ac09f7;"Eduardo Espinosa";623cc74b7a6ac09f7;"Eduardo Espinosa";623cc74b7a6ac09f7;"Eduardo Espinosa";null
656255239dff57c33;"Mantenimiento a muros de Subestación Principal";;;Economica;Economica;30;"Existing Customer";2023-11-27;;;"2023-11-25 20:12:19";"2023-11-28 17:51:58";00789;;[];[];;;;;;1;0;;;;;;;;;5ff65b1c3a52d37e3;Cargill;null;5ffdc4650283cd158;"Esteban Baez";;;;;623cc74b7a6ac09f7;"Eduardo Espinosa";623cc74b7a6ac09f7;"Eduardo Espinosa";623cc74b7a6ac09f7;"Eduardo Espinosa";null
6560faf241170937f;"Respaldo PLC Rockwell";;;Levantamiento;Levantamiento;10;;2023-11-24;;;"2023-11-24 19:35:14";"2023-11-24 19:35:14";00788;;[];[];;;;;;1;0;;;;;;;;;6560faebafd6b41f1;"Carbon Steel";null;;;;;;;5ff69cc4e359f82b8;"Enrique Martinez";;;5ff69cc4e359f82b8;"Enrique Martinez";null
655f8e2e5168669ec;Drives;;;Proposal;Proposal;50;;2023-11-24;;;"2023-11-23 17:38:54";"2023-11-25 00:51:24";00787;;[];[];;;;;;1;0;;;;;;;;;627ebc3f025339ce6;Citrofrut;null;;;;;;;5ff69cc4e359f82b8;"Enrique Martinez";5ff69cc4e359f82b8;"Enrique Martinez";5ff69cc4e359f82b8;"Enrique Martinez";null
655eb6af0486628e5;"Adicionales Septiembre-Octubre-Noviembre 2023";;;Economica;Economica;30;Partner;2023-11-27;;;"2023-11-23 02:19:27";"2023-11-23 02:23:59";00786;;[];[];;;;;;1;0;;;;;;;;;5ff65b1c3a52d37e3;Cargill;null;644186737a0cfe5b2;"Carlos Alberto Vázquez";;;;;623cc74b7a6ac09f7;"Eduardo Espinosa";623cc74b7a6ac09f7;"Eduardo Espinosa";623cc74b7a6ac09f7;"Eduardo Espinosa";null
65556f39ef3760f17;"Alimentacion eléctrica del DAF-UCY";;;Proposal;Proposal;50;;2023-11-22;"Favor de cotizar material con tubería Conduit de acuerdo con la trayectoria de alimentador de 150 amp desde subestación 
y cuadro de cargas del Tablero del DAF UCY, adicional considerar 2 bombas centrifugas de 20 hp, 440 Volts AC, 3F+N.

Saludos
Gerardo Cano Hernandez
";;"2023-11-16 01:24:09";"2023-11-25 00:51:22";00785;;[];[];;;;;;1;0;;;;;;;;;627ebc3f025339ce6;Citrofrut;null;;;;;;;5ff69cc4e359f82b8;"Enrique Martinez";5ff69cc4e359f82b8;"Enrique Martinez";5ff69cc4e359f82b8;"Enrique Martinez";null
6553ce45f1b17b781;"Suministro equipos de flujo";;;Proposal;Proposal;50;;2023-11-17;;;"2023-11-14 19:45:09";"2023-11-25 00:51:16";00784;;[];[];;;;;;1;0;;;;;;;;;5ff69d5b4362f49f9;SSA;null;;;;;;;5ff69cc4e359f82b8;"Enrique Martinez";5ff69cc4e359f82b8;"Enrique Martinez";5ff69cc4e359f82b8;"Enrique Martinez";null
6553ce3094589b0b6;"Equipo deshumidificador";;;Levantamiento;Levantamiento;10;;2023-11-21;;;"2023-11-14 19:44:48";"2023-11-14 19:44:48";00783;;[];[];;;;;;1;0;;;;;;;;;64494d4a4a4da39e8;"Bredero Shaw Mexico";null;;;;;;;5ff69cc4e359f82b8;"Enrique Martinez";;;5ff658fa7ceb89670;"Allan Rasso";null
6553cbed23ff88578;"Reemplazo y configuración de pantallas";;;Proposal;Proposal;50;;2023-11-17;"Buenas tardes Estimado Proveedor.
Solicito el apoyo para cotizar los siguientes servicios requeridos en planta Paso Largo.
 
•	Reemplazo y configuración de pantalla HMI DELTA Cent. 130
•	Reemplazo y configuración de pantalla HMI SIEMENS Esteriliz.
•	Reemplazo y configuración de módulo analógico pozo 4
 
 
Para más información técnica favor de buscar a @Víctor Manuel Perez Perez.
Quedo al pendiente de sus comentarios.
Saludos
Fabian
Compras Citrofrut
 
";;"2023-11-14 19:35:09";"2023-11-25 00:51:20";00782;;[];[];;;;;;1;0;;;;;;;;;6438639b0756f403d;"CITROFRUT PL";null;;;;;;;5ff69cc4e359f82b8;"Enrique Martinez";5ff69cc4e359f82b8;"Enrique Martinez";5ff6932837e4e496b;"Efrain Ramirez";null
6553cab9a5c8174ec;SPREAS;;;Proposal;Proposal;50;;2023-11-17;;;"2023-11-14 19:30:01";"2023-11-25 00:51:18";00781;;[];[];;;;;;1;0;;;;;;;;;5ff69d5b4362f49f9;SSA;null;;;;;;;5ff69cc4e359f82b8;"Enrique Martinez";5ff69cc4e359f82b8;"Enrique Martinez";5ff69cc4e359f82b8;"Enrique Martinez";null
6553c9fe41bc3a9c3;"C.M. 3A. ALUMBRADO E INST. ELEC. MENORES";;;Levantamiento;Levantamiento;10;;2023-11-27;"Buen día 
 
Fueron invitados a esta licitación que está activa desde el 26 de octubre y a la fecha no le han dado ningún tipo de seguimiento. Este contrato es para la planta de Ternium Puebla. En caso de que estén interesados por favor contactarme a la brevedad para seguirlos considerando y programar una visita.
 
Les dejo mi celular 22 28 62 06 99.
 
Saludos, 
";;"2023-11-14 19:26:54";"2023-11-14 19:26:54";00780;;[];[];;;;;;1;0;;;;;;;;;6553c968aec032664;EXIROS;null;6553c978a288ce746;"ALEJANDRA MALDONADO";;;;;5ff69cc4e359f82b8;"Enrique Martinez";;;5ff69cc4e359f82b8;"Enrique Martinez";null
6553c6fab4865df0e;"Transformador 2500 Kva";;;Levantamiento;Levantamiento;10;;2023-11-17;;;"2023-11-14 19:14:02";"2023-11-14 19:14:02";00779;;[];[];;;;;;1;0;;;;;;;;;64494d4a4a4da39e8;"Bredero Shaw Mexico";null;;;;;;;5ff69cc4e359f82b8;"Enrique Martinez";;;5ff658fa7ceb89670;"Allan Rasso";null
6553c4f8999cc46de;"Servicio de calibracion equipos de medición de agua";;;Proposal;Proposal;50;;2023-11-21;;;"2023-11-14 19:05:28";"2023-11-25 00:51:54";00778;;[];[];;;;;;1;0;;;;;;;;;5ff69d5b4362f49f9;SSA;null;;;;;;;5ff69cc4e359f82b8;"Enrique Martinez";5ff69cc4e359f82b8;"Enrique Martinez";5ff69cc4e359f82b8;"Enrique Martinez";null
6553c3b2242465200;"Suministro y Fabricacion de Tablero de control";;;Levantamiento;Levantamiento;10;;2023-11-17;"Efrain, buena tarde,

Apóyame en cotizar la fabricación y suministro de este panel.

Lo quisiéramos armado con los componentes que vienen en el catálogo, los modelos no son limitativos, sin embargo, lo único que no puede cambiar es el modelo del PLC y del HMI. Lo demás, lo puedes cambiar por mudelos equivalentes si así lo quisieras.

Estoy al pendiente si tuvieras alguna duda.

Saludos.

";;"2023-11-14 19:00:02";"2023-11-14 19:00:02";00777;;[];[];;;;;;1;0;;;;;;;;;627ebc3f025339ce6;Citrofrut;null;64f6559764e938f06;"Ivan Escobar Hernandez";;;;;5ff69cc4e359f82b8;"Enrique Martinez";;;5ff6932837e4e496b;"Efrain Ramirez";null
6553c369833e03d9f;"Inst. Electica Transformador Casa Orizaba Potenza";;;Levantamiento;Levantamiento;10;;2023-11-17;"Buenas tardes Ing Efraín

Según lo comentado, te envio la información que tenemos de cargas que serán instaladas en la residencia, para que en base a esto se haga un cálculo para transformador y alimentadores, te envío en un PDF la ruta del transformador que está sugerida en la anterior ingeniería, no tenemos mucha información de esta anterior propuesta porque hubo problemas con el calculista anterior y por ello todo quedó en una propuesta, también te envio la información de cargas actualizada, igual chécala, si tienes dudas me comentas, para que nos hagas una cotización y ya platiques con mi papá de costo de honorarios, quedó pendientes

Alexis Hernández 
";;"2023-11-14 18:58:49";"2023-11-14 18:58:49";00776;;[];[];;;;;;1;0;;;;;;;;;6553c3507cb4c696f;"GRUPO EMP";null;;;;;;;5ff69cc4e359f82b8;"Enrique Martinez";;;5ff69cc4e359f82b8;"Enrique Martinez";null
65523d3fde66414b7;"Remodelación de Área Star Class/Taller de Servicio Agencia Mercedez Benz";;;Economica;Economica;30;;2023-11-15;;;"2023-11-13 15:14:07";"2023-11-13 15:14:07";00775;;[];[];;;;;;1;0;;;;;;;;;65523c5286531da25;"GRUPO DIEZ";null;;;;;;;623cc74b7a6ac09f7;"Eduardo Espinosa";;;623cc74b7a6ac09f7;"Eduardo Espinosa";null
65496b45e0759d2a0;"Panel Huichihuayan";;;Proposal;Proposal;50;;2023-11-07;"Que tal Efrain, buenas tardes,

Apóyame en cotizar el siguiente panel: 6AV124-0JC01-0AX0, LAB planta Huichihuayán.

Cualquier comentario, estoy al pendiente.

Saludos.
";;"2023-11-06 22:40:05";"2023-11-14 18:55:44";00774;;[];[];;;;;;1;0;;;;;;;;;627ebc3f025339ce6;Citrofrut;null;;;;;;;5ff69cc4e359f82b8;"Enrique Martinez";5ff69cc4e359f82b8;"Enrique Martinez";5ff69cc4e359f82b8;"Enrique Martinez";null
654589f5cab1d2632;"Sentron PAC3220";;;Proposal;Proposal;50;;2023-11-22;;;"2023-11-04 00:01:57";"2023-11-14 18:55:51";00773;;[];[];;;;;;1;0;;;;;;;;;627ebc3f025339ce6;Citrofrut;null;;;;;;;5ff69cc4e359f82b8;"Enrique Martinez";5ff69cc4e359f82b8;"Enrique Martinez";5ff69cc4e359f82b8;"Enrique Martinez";null
65456ddab1779e2ba;"Mantto. Tableros, Transformadores y Subestacion AMCO";;;Proposal;Proposal;50;;2023-11-10;;;"2023-11-03 22:02:02";"2023-11-25 00:52:03";00772;;[];[];;;;;;1;0;;;;;;;;;616f3a060affb5826;AMCO;null;;;;;;;5ff69cc4e359f82b8;"Enrique Martinez";5ff69cc4e359f82b8;"Enrique Martinez";5ff69cc4e359f82b8;"Enrique Martinez";null
65452fd5d9eb2b44e;"Interconexion de la migracion s7-300 a s7-1500";;;Levantamiento;Levantamiento;10;;2023-11-10;;;"2023-11-03 17:37:25";"2023-11-03 17:37:25";00771;;[];[];;;;;;1;0;;;;;;;;;60b00e8a3d2087062;"Extrusiones metalicas";null;;;;;;;5ff69cc4e359f82b8;"Enrique Martinez";;;5ff6932837e4e496b;"Efrain Ramirez";null
65452fb5b2cdbf46c;"Antenas inalambricas en grua";;;Levantamiento;Levantamiento;10;;2023-11-08;;;"2023-11-03 17:36:53";"2023-11-03 17:36:53";00770;;[];[];;;;;;1;0;;;;;;;;;60b00e8a3d2087062;"Extrusiones metalicas";null;;;;;;;5ff69cc4e359f82b8;"Enrique Martinez";;;5ff6932837e4e496b;"Efrain Ramirez";null
6543c890b6b37ec55;"Mantenimiento de subestaciones eléctricas";;;Levantamiento;Levantamiento;10;;2023-11-10;;;"2023-11-02 16:04:32";"2023-11-02 16:04:32";00769;;[];[];;;;;;1;0;;;;;;;;;5ff65b1c3a52d37e3;Cargill;null;;;;;;;5ff69cc4e359f82b8;"Enrique Martinez";;;5ff69cc4e359f82b8;"Enrique Martinez";null
6541986046c529124;"Remplazo de gabinete de control de karcher";;;Levantamiento;Levantamiento;10;;2023-11-08;;;"2023-11-01 00:14:24";"2023-11-01 00:14:24";00768;;[];[];;;;;;1;0;;;;;;;;;5ff69d5b4362f49f9;SSA;null;;;;;;;5ff69cc4e359f82b8;"Enrique Martinez";;;5ff69cc4e359f82b8;"Enrique Martinez";null
65419544079221512;"Cambio de Montenes en Nave Cutback";;;Levantamiento;Levantamiento;10;;2023-11-08;;;"2023-11-01 00:01:08";"2023-11-01 00:01:08";00767;;[];[];;;;;;1;0;;;;;;;;;64494d4a4a4da39e8;"Bredero Shaw Mexico";null;;;;;;;5ff69cc4e359f82b8;"Enrique Martinez";;;623cc74b7a6ac09f7;"Eduardo Espinosa";null
654194195af5186ae;"Sistema extraccion de vapores";;;Levantamiento;Levantamiento;10;;2023-11-08;;;"2023-10-31 23:56:09";"2023-10-31 23:56:09";00766;;[];[];;;;;;1;0;;;;;;;;;64494d4a4a4da39e8;"Bredero Shaw Mexico";null;;;;;;;5ff69cc4e359f82b8;"Enrique Martinez";;;5ff69cc4e359f82b8;"Enrique Martinez";null
6541931e92c737e86;"Trinchera para agua en piso de Nave";;;Levantamiento;Levantamiento;10;;2023-11-08;;;"2023-10-31 23:51:58";"2023-10-31 23:54:14";00765;;[];[];;;;;;1;0;;;;;;;;;64494d4a4a4da39e8;"Bredero Shaw Mexico";null;646e4e1bddfdb762f;"Javier Ramírez";;;;;5ff69cc4e359f82b8;"Enrique Martinez";623cc74b7a6ac09f7;"Eduardo Espinosa";623cc74b7a6ac09f7;"Eduardo Espinosa";null
654192c97d0c7d217;"Escaleras Marinas para Naves";;;Levantamiento;Levantamiento;10;;2023-11-08;;;"2023-10-31 23:50:33";"2023-10-31 23:53:54";00764;;[];[];;;;;;1;0;;;;;;;;;64494d4a4a4da39e8;"Bredero Shaw Mexico";null;646e4e1bddfdb762f;"Javier Ramírez";;;;;5ff69cc4e359f82b8;"Enrique Martinez";623cc74b7a6ac09f7;"Eduardo Espinosa";623cc74b7a6ac09f7;"Eduardo Espinosa";null
6541926f0fce2951f;"Ruteado electrico para  alimentacion de tablero en caseta";;;Levantamiento;Levantamiento;10;;2023-11-08;;;"2023-10-31 23:49:03";"2023-10-31 23:49:03";00763;;[];[];;;;;;1;0;;;;;;;;;64494d4a4a4da39e8;"Bredero Shaw Mexico";null;;;;;;;5ff69cc4e359f82b8;"Enrique Martinez";;;5ff69cc4e359f82b8;"Enrique Martinez";null
654191f2ada74e5dd;"Aires acondicionados de 5T";;;Levantamiento;Levantamiento;10;;2023-11-08;;;"2023-10-31 23:46:58";"2023-10-31 23:46:58";00762;;[];[];;;;;;1;0;;;;;;;;;64494d4a4a4da39e8;"Bredero Shaw Mexico";null;;;;;;;5ff69cc4e359f82b8;"Enrique Martinez";;;5ff69cc4e359f82b8;"Enrique Martinez";null
65418f654011804ca;"Personal por Administración";;;Levantamiento;Levantamiento;10;;2023-11-02;;;"2023-10-31 23:36:05";"2023-10-31 23:36:05";00761;;[];[];;;;;;1;0;;;;;;;;;627ebc3f025339ce6;Citrofrut;null;;;;;;;5ff69cc4e359f82b8;"Enrique Martinez";;;5ff69cc4e359f82b8;"Enrique Martinez";null
65418dc9a4060b45b;"Instalación eléctrica para un silo de 5000 Tons";;;Levantamiento;Levantamiento;10;;2023-11-08;;;"2023-10-31 23:29:13";"2023-10-31 23:29:13";00760;;[];[];;;;;;1;0;;;;;;;;;61de126a0e90950dd;"San Antonio";null;;;;;;;5ff69cc4e359f82b8;"Enrique Martinez";;;5ff69cc4e359f82b8;"Enrique Martinez";null
654120f2f358c9432;"MOVIMIENTO DE TUBERÍA POR MOVIMIENTO DE ESTRUCTURA DE TOLVA";;;Levantamiento;Levantamiento;10;;2023-11-01;;;"2023-10-31 15:44:50";"2023-10-31 15:44:50";00759;;[];[];;;;;;1;0;;;;;;;;;616f3a060affb5826;AMCO;null;;;;;;;5ff69cc4e359f82b8;"Enrique Martinez";;;623cc74b7a6ac09f7;"Eduardo Espinosa";null
654095b3709c8d9ce;"Adicional Alimentador de Compresor";;;Proposal;Proposal;50;Partner;2023-10-31;;;"2023-10-31 05:50:43";"2023-11-25 00:54:29";00758;;[];[];;;;;;1;0;;;;;;;;;616f3a060affb5826;AMCO;null;623123c52d3bc3406;"Misael Rodriguez";;;;;623cc74b7a6ac09f7;"Eduardo Espinosa";5ff69cc4e359f82b8;"Enrique Martinez";623cc74b7a6ac09f7;"Eduardo Espinosa";null
653fd72d983d4e879;"Sistema de alivio automatico de agua desmineralizada";;;Levantamiento;Levantamiento;10;;2023-11-01;;;"2023-10-30 16:17:49";"2023-10-30 16:17:49";00757;;[];[];;;;;;1;0;;;;;;;;;651b3b1f08ff5f74e;CAFINCO;null;;;;;;;5ff69cc4e359f82b8;"Enrique Martinez";;;623cc74b7a6ac09f7;"Eduardo Espinosa";null
653fd40406f9d0c50;"Inst. Elect. desde Subestacion a Caseta Vigilancia Planta 2";;;Levantamiento;Levantamiento;10;;2023-11-03;;;"2023-10-30 16:04:20";"2023-10-30 16:04:20";00756;;[];[];;;;;;1;0;;;;;;;;;64494d4a4a4da39e8;"Bredero Shaw Mexico";null;;;;;;;5ff69cc4e359f82b8;"Enrique Martinez";;;5ff69cc4e359f82b8;"Enrique Martinez";null
653fd3b7dc66a9623;"Resistencias Extrusora";;;Levantamiento;Levantamiento;10;;2023-11-03;;;"2023-10-30 16:03:03";"2023-10-30 16:03:03";00755;;[];[];;;;;;1;0;;;;;;;;;64494d4a4a4da39e8;"Bredero Shaw Mexico";null;;;;;;;5ff69cc4e359f82b8;"Enrique Martinez";;;64bef18dced294ba9;"Carlos Calderon";null
653fd340cc8420142;"Panel TP900 Espejo";;;Levantamiento;Levantamiento;10;;2023-11-03;;;"2023-10-30 16:01:04";"2023-10-30 16:01:04";00754;;[];[];;;;;;1;0;;;;;;;;;627ebc3f025339ce6;Citrofrut;null;;;;;;;5ff69cc4e359f82b8;"Enrique Martinez";;;5ff69cc4e359f82b8;"Enrique Martinez";null
65369fdd3d2fb71ae;"Instalación Eléctrica ICEGEN";;;Proposal;Proposal;50;Email;2023-10-25;;;"2023-10-23 16:31:25";"2023-11-25 00:54:38";00752;;[];[];;;;;;1;0;;;;;;;;;627ebc3f025339ce6;Citrofrut;null;63f3dcc1d46922a80;"Fabián Franco Díaz";;;;;623cc74b7a6ac09f7;"Eduardo Espinosa";5ff69cc4e359f82b8;"Enrique Martinez";623cc74b7a6ac09f7;"Eduardo Espinosa";null
652f18630d279f548;"Estante Bodega junto a Consultorio";;;Proposal;Proposal;50;Partner;2023-10-17;;;"2023-10-17 23:27:31";"2023-11-25 00:54:46";00751;;[];[];;;;;;1;0;;;;;;;;;5ff65b1c3a52d37e3;Cargill;null;;;;;;;623cc74b7a6ac09f7;"Eduardo Espinosa";5ff69cc4e359f82b8;"Enrique Martinez";623cc74b7a6ac09f7;"Eduardo Espinosa";null
652dbe6c2ecaa92bc;"Instalación Electrica Tolva Ptar";;;Levantamiento;Levantamiento;10;;2023-11-17;"Buenos dias, estimado Proveedor, por medio del siguiente correo solicito el apoyo para cotizar el siguiente trabajo en planta Paso Largo:

•	Instalación Electrica Tolva Ptar

Nota:en la partida numero 3 , favor de cotizar el Arrancador ATP.

Para cualquier duda técnica, comunicarse con el Ing.Gerardo Cano, o si es necesario una visita en piso.
";;"2023-10-16 22:51:24";"2023-11-14 19:18:09";00750;;[];[];;;;;;1;0;;;;;;;;;627ebc3f025339ce6;Citrofrut;null;;;;;;;5ff69cc4e359f82b8;"Enrique Martinez";5ff69cc4e359f82b8;"Enrique Martinez";5ff69cc4e359f82b8;"Enrique Martinez";null
652dbd4fa731d2999;"Adicionales sala lean";;;Levantamiento;Levantamiento;10;;2023-10-20;;;"2023-10-16 22:46:39";"2023-10-16 22:46:39";00749;;[];[];;;;;;1;0;;;;;;;;;5ff65b1c3a52d37e3;Cargill;null;;;;;;;5ff69cc4e359f82b8;"Enrique Martinez";;;623cc74b7a6ac09f7;"Eduardo Espinosa";null
652717472f2a37ce3;"Motores 5HP CCC 2 Bocas";;;Levantamiento;Levantamiento;10;;2023-10-17;;;"2023-10-11 21:44:39";"2023-10-11 21:48:17";00748;;[];[];;;;;;1;0;;;;;;;;;65271814da52bddc4;"CFE DOS BOCAS";null;;;;;;;5ff69cc4e359f82b8;"Enrique Martinez";5ff69cc4e359f82b8;"Enrique Martinez";64bef18dced294ba9;"Carlos Calderon";null
6527110a2310887a3;"Integracion Sist. Control de Temperatura";;;Proposal;Proposal;50;;2023-10-17;;;"2023-10-11 21:18:02";"2023-11-25 00:54:56";00747;;[];[];;;;;;1;0;;;;;;;;;616f3a060affb5826;AMCO;null;;;;;;;5ff69cc4e359f82b8;"Enrique Martinez";5ff69cc4e359f82b8;"Enrique Martinez";623cc74b7a6ac09f7;"Eduardo Espinosa";null
65270f0ac2693fd3c;"Unidad Micrologic";;;Levantamiento;Levantamiento;10;;2023-10-13;;;"2023-10-11 21:09:30";"2023-10-11 21:09:30";00746;;[];[];;;;;;1;0;;;;;;;;;5ff65b1c3a52d37e3;Cargill;null;;;;;;;5ff69cc4e359f82b8;"Enrique Martinez";;;5ff69cc4e359f82b8;"Enrique Martinez";null
6525769d334806db4;"Tarjetas S7";;;Levantamiento;Levantamiento;10;;2023-10-10;;;"2023-10-10 16:06:53";"2023-10-10 16:06:53";00745;;[];[];;;;;;1;0;;;;;;;;;627ebc3f025339ce6;Citrofrut;null;;;;;;;5ff69cc4e359f82b8;"Enrique Martinez";;;5ff69cc4e359f82b8;"Enrique Martinez";null
651def0fee21653b5;"Mantenimiento de Caseta 3";;;Economica;Economica;30;Partner;2023-10-07;;;"2023-10-04 23:02:39";"2023-10-04 23:02:39";00744;;[];[];;;;;;1;0;;;;;;;;;5ff65b1c3a52d37e3;Cargill;null;;;;;;;623cc74b7a6ac09f7;"Eduardo Espinosa";;;623cc74b7a6ac09f7;"Eduardo Espinosa";null
651deee1b7293846f;"Mantenimiento a taludes de compartimentos";;;Economica;Economica;30;Partner;2023-10-12;;;"2023-10-04 23:01:53";"2023-10-04 23:01:53";00743;;[];[];;;;;;1;0;;;;;;;;;5ff65b1c3a52d37e3;Cargill;null;;;;;;;623cc74b7a6ac09f7;"Eduardo Espinosa";;;623cc74b7a6ac09f7;"Eduardo Espinosa";null
651deea4bb68f20fa;"Adicionales Cámaras";;;Economica;Economica;30;Partner;2023-10-04;;;"2023-10-04 23:00:52";"2023-10-04 23:00:52";00742;;[];[];;;;;;1;0;;;;;;;;;5ff65b1c3a52d37e3;Cargill;null;6035a4a7b27d631d5;"Dean Grapengiessez";;;;;623cc74b7a6ac09f7;"Eduardo Espinosa";;;623cc74b7a6ac09f7;"Eduardo Espinosa";null
651b56b97b4a25ebb;"Anillos Desmagnetizadores";;;Levantamiento;Levantamiento;10;;2023-10-03;;;"2023-10-02 23:48:09";"2023-10-02 23:48:09";00741;;[];[];;;;;;1;0;;;;;;;;;64494d4a4a4da39e8;"Bredero Shaw Mexico";null;;;;;;;5ff69cc4e359f82b8;"Enrique Martinez";;;623cc74b7a6ac09f7;"Eduardo Espinosa";null
651b3be9d34111dad;"Proyecto eléctrico Granja Berlin 2";;;Levantamiento;Levantamiento;10;;2023-10-09;;;"2023-10-02 21:53:45";"2023-10-02 21:53:45";00740;;[];[];;;;;;1;0;;;;;;;;;61de126a0e90950dd;"San Antonio";null;;;;;;;5ff69cc4e359f82b8;"Enrique Martinez";;;5ff69cc4e359f82b8;"Enrique Martinez";null
651b39e9a5fed29d3;"Tableros Chedraui Xalapa";;;Levantamiento;Levantamiento;10;;2023-10-09;;;"2023-10-02 21:45:13";"2023-10-02 21:48:03";00738;;[];[];;;;;;1;0;;;;;;;;;620d67046eaf03e0a;CHEDRAUI;null;;;;;;;5ff69cc4e359f82b8;"Enrique Martinez";5ff69cc4e359f82b8;"Enrique Martinez";623cc74b7a6ac09f7;"Eduardo Espinosa";null
6516ec2a0267b1c49;"Comfort Panel TP1200";;;Levantamiento;Levantamiento;10;;2023-10-02;;;"2023-09-29 15:24:26";"2023-09-29 15:32:59";00737;;[];[];;;;;;1;0;;;;;;;;;6516ec206ec901aad;VALLOUREC;null;;;;;;;5ff69cc4e359f82b8;"Enrique Martinez";5ff69cc4e359f82b8;"Enrique Martinez";5ff69cc4e359f82b8;"Enrique Martinez";null
6515e01f9678a89e8;"ARMADO DE TABLEROS CON TOMACORRIENTE";;;Levantamiento;Levantamiento;10;;2023-10-05;;;"2023-09-28 20:20:47";"2023-09-28 20:20:47";00736;;[];[];;;;;;1;0;;;;;;;;;6515e009551698106;Risoul;null;;;;;;;5ff69cc4e359f82b8;"Enrique Martinez";;;5ff69cc4e359f82b8;"Enrique Martinez";null
6515da692f79dd927;"AIRES ACONDICNONADOS PARA EQUIPOS";;;Levantamiento;Levantamiento;10;;2023-10-04;"ESPECIFICACIÓN TÉCNICA
JUSTIFICACIÓN: 
Favor de tomar en cuenta los siguientes modelos de equipo
Cantidad
2   marca: Mirage, modelo: Magnum 22 inverter , 230Vac,  frío y calor.
2   marca: Mirage, modelo: Magnum 17 inverter, 230Vac, solo frío
2   Carrier 50ZPB-036-3-0-TP, 230Vac, solo frío.
Se distribuirán en las siguientes áreas de la planta
1 Ton             Jefe de Turno     		   Mirage Magnum 22, frío/calor
1 Ton             Comedor                                          Mirage Magnum 22, frío/calor
3 Ton             Sala Electrónica (T3K)                    Mirage Magnum 17 o superior, solo frío pisotecho
3 Ton             Torre Enfriamiento                         Mirage Magnum 17 o superior, solo frío pisotecho
3 Ton             PLC cárcamo de bombeo               Carrier 50ZPB-036, frío,  pisotecho
3 Ton             CCM cárcamo de bombeo              Carrier 50ZPB-036, frío";;"2023-09-28 19:56:25";"2023-09-28 19:56:25";00735;;[];[];;;;;;1;0;;;;;;;;;64ee2ddd118b7bf87;Naturgy;null;;;;;;;5ff69cc4e359f82b8;"Enrique Martinez";;;5ff69cc4e359f82b8;"Enrique Martinez";null
65159f0dedf149b9c;"Mantenimiento a Covacha de Oficina";;;Proposal;Proposal;50;;2023-10-04;;;"2023-09-28 15:43:09";"2023-11-25 01:05:51";00734;;[];[];;;;;;1;0;;;;;;;;;5ff65b1c3a52d37e3;Cargill;null;644186737a0cfe5b2;"Carlos Alberto Vázquez";;;;;5ff69cc4e359f82b8;"Enrique Martinez";5ff69cc4e359f82b8;"Enrique Martinez";623cc74b7a6ac09f7;"Eduardo Espinosa";null
65159dbad553ecdd3;"Puerta de equipo contraincendio";;;Proposal;Proposal;50;;2023-10-03;;;"2023-09-28 15:37:30";"2023-11-25 01:05:43";00733;;[];[];;;;;;1;0;;;;;;;;;5ff65b1c3a52d37e3;Cargill;null;;;;;;;5ff69cc4e359f82b8;"Enrique Martinez";5ff69cc4e359f82b8;"Enrique Martinez";623cc74b7a6ac09f7;"Eduardo Espinosa";null
65131ba75d691216f;"TRABAJOS COMPLEMENTARIOS EN POZO-GRANJA MATA BASTA 2";;;Proposal;Proposal;50;;2023-09-28;"Buen día:

Por medio del presente, se invita unos trabajos eléctricos para un pozo en la granja “Mata Basta 2”. 

Favor de enviar la cotización a más tardar el 28 de septiembre del año en curso en atención a Avícola Omega, S.A. de C.V. 

De antemano, gracias. 

";;"2023-09-26 17:57:59";"2023-11-25 01:05:24";00731;;[];[];;;;;;1;0;;;;;;;;;61de126a0e90950dd;"San Antonio";null;61de11d8eb8d5d8b8;"Alejandro Andrade Sánchez";;;;;5ff69cc4e359f82b8;"Enrique Martinez";5ff69cc4e359f82b8;"Enrique Martinez";623cc74b7a6ac09f7;"Eduardo Espinosa";null
65120b8da4cf3d77e;"Mantto Preventivo a transformadores";;;Levantamiento;Levantamiento;10;;2023-09-29;"Necesitamos llevar a cabo el servicio de mantenimiento preventivo en los transformadores que tenemos en servicio en Planta 1;

TR-1 500 KVA
TR-2 1750 KVA
TR-3 1750 KVA
TR-4 2500KVA

El alcance necesario debe ser
	Meggeo d Transformador
	Rigidez dieléctrica
	Relación de Transformación
	Análisis físico y químico de aceite (pruebas dieléctricas)

Adicional hacer pruebas a los relevadores de control de los mismos transformadores

";;"2023-09-25 22:37:01";"2023-09-25 22:37:01";00730;;[];[];;;;;;1;0;;;;;;;;;64494d4a4a4da39e8;"Bredero Shaw Mexico";null;;;;;;;5ff69cc4e359f82b8;"Enrique Martinez";;;5ff69cc4e359f82b8;"Enrique Martinez";null
6511c4f88cbb0b505;"Cableado de Sub. Principal a DC-00";;;Levantamiento;Levantamiento;10;;2023-09-26;;;"2023-09-25 17:35:52";"2023-09-25 17:35:52";00729;;[];[];;;;;;1;0;;;;;;;;;5ff65b1c3a52d37e3;Cargill;null;;;;;;;5ff69cc4e359f82b8;"Enrique Martinez";;;5ff69cc4e359f82b8;"Enrique Martinez";null
650db697f3baba63c;"ADICIONAL MANTENIMIENTO Y CAMBIOS DE CONOS EN SUBESTACIÓN MUELLE";;;Proposal;Proposal;50;;2023-09-27;;;"2023-09-22 15:45:27";"2023-11-25 01:04:49";00728;;[];[];;;;;;1;0;;;;;;;;;5ff65b1c3a52d37e3;Cargill;null;;;;;;;5ff69cc4e359f82b8;"Enrique Martinez";5ff69cc4e359f82b8;"Enrique Martinez";623cc74b7a6ac09f7;"Eduardo Espinosa";null
650cda34ec2ba7d49;"TRABAJOS PARA CORREGIR ACOMETIDAS EN HUERTAS DE FOMECIT";;;Levantamiento;Levantamiento;10;;2023-09-25;;;"2023-09-22 00:05:08";"2023-09-22 00:05:08";00727;;[];[];;;;;;1;0;;;;;;;;;627ebc3f025339ce6;Citrofrut;null;;;;;;;5ff69cc4e359f82b8;"Enrique Martinez";;;5ff69cc4e359f82b8;"Enrique Martinez";null
650cd6baa104e8a74;"Adicionales Mantenimiento Sala Lean";;;Proposal;Proposal;50;;2023-09-28;;;"2023-09-21 23:50:18";"2023-11-25 01:04:41";00726;;[];[];;;;;;1;0;;;;;;;;;5ff65b1c3a52d37e3;Cargill;null;;;;;;;5ff69cc4e359f82b8;"Enrique Martinez";5ff69cc4e359f82b8;"Enrique Martinez";623cc74b7a6ac09f7;"Eduardo Espinosa";null
650cd68948b4d603b;"Adicionales Construccion de Caseta de 2 Niveles en Área de Bascula";;;Economica;Economica;30;;2023-09-28;;;"2023-09-21 23:49:29";"2023-10-03 15:04:49";00725;;[];[];;;;;;1;0;;;;;;;;;5ff65b1c3a52d37e3;Cargill;null;;;;;;;5ff69cc4e359f82b8;"Enrique Martinez";623cc74b7a6ac09f7;"Eduardo Espinosa";623cc74b7a6ac09f7;"Eduardo Espinosa";null
650c9206001b90193;"Cableado de 440v de sub. muelle a silo central";;;Levantamiento;Levantamiento;10;;2023-09-25;;;"2023-09-21 18:57:10";"2023-09-21 18:57:10";00724;;[];[];;;;;;1;0;;;;;;;;;5ff65b1c3a52d37e3;Cargill;null;;;;;;;5ff69cc4e359f82b8;"Enrique Martinez";;;5ff69cc4e359f82b8;"Enrique Martinez";null
650b8346b8fcd9d06;"Adicionales Julio-Agosto 2023";;;Proposal;Proposal;50;Partner;2023-09-25;;;"2023-09-20 23:41:58";"2023-11-25 01:04:24";00723;;[];[];;;;;;1;0;;;;;;;;;5ff65b1c3a52d37e3;Cargill;null;;;;;;;623cc74b7a6ac09f7;"Eduardo Espinosa";5ff69cc4e359f82b8;"Enrique Martinez";623cc74b7a6ac09f7;"Eduardo Espinosa";null
650b20efeefd459db;"Modificacion a Tablero Molino G7";;;Levantamiento;Levantamiento;10;;2023-09-22;;;"2023-09-20 16:42:23";"2023-09-20 16:42:23";00722;;[];[];;;;;;1;0;;;;;;;;;616f3a060affb5826;AMCO;null;;;;;;;5ff69cc4e359f82b8;"Enrique Martinez";;;5ff6932837e4e496b;"Efrain Ramirez";null
650a3a15c3a031f1a;"Variadores de Frecuencia Yaskawa";;;Levantamiento;Levantamiento;10;;2023-09-25;"Buena tarde

Me puedes cotizar lo siguiente:

Requisicion                               795 Electrico
Cantidad:                                  2
Descripción:                             Variador de Frecuencia
Modelo:                                    GA50U4038ABA
Marca:                                      Yaskawa
Volts:                                        440 V Trifásico
";;"2023-09-20 00:17:25";"2023-09-20 00:17:25";00721;;[];[];;;;;;1;0;;;;;;;;;6436cf0cc29142e90;"Central Energetica de Atoyac, S.A. de C.V.";null;;;;;;;5ff69cc4e359f82b8;"Enrique Martinez";;;64bef18dced294ba9;"Carlos Calderon";null
650a37a50cbeac089;"Plataforma Draga 7 Izquierda";;;Levantamiento;Levantamiento;10;;2023-09-27;;;"2023-09-20 00:07:01";"2023-09-20 00:07:01";00720;;[];[];;;;;;1;0;;;;;;;;;5ff65b1c3a52d37e3;Cargill;null;644186737a0cfe5b2;"Carlos Alberto Vázquez";;;;;5ff69cc4e359f82b8;"Enrique Martinez";;;623cc74b7a6ac09f7;"Eduardo Espinosa";null
650a364bc490b2e26;"Motor malacate";;;Levantamiento;Levantamiento;10;;2023-09-26;"Capacidad 600 Kg. Autorizada 400 kg";;"2023-09-20 00:01:15";"2023-09-20 00:01:42";00719;;[];[];;;;;;1;0;;;;;;;;;5ff65b1c3a52d37e3;Cargill;null;;;;;;;5ff69cc4e359f82b8;"Enrique Martinez";5ff69cc4e359f82b8;"Enrique Martinez";5ff69cc4e359f82b8;"Enrique Martinez";null
650a35ce6abafea30;"Servicio de Programación de temperaturas";;;Levantamiento;Levantamiento;10;;2023-09-25;;;"2023-09-19 23:59:10";"2023-09-20 16:32:25";00718;;[];[];;;;;;1;0;;;;;;;;;616f3a060affb5826;AMCO;null;;;;;;;5ff69cc4e359f82b8;"Enrique Martinez";5ff69cc4e359f82b8;"Enrique Martinez";5ff6932837e4e496b;"Efrain Ramirez";null
650a340eb540b6d1a;"Alimentador de compresor";;;Levantamiento;Levantamiento;10;;2023-09-25;;;"2023-09-19 23:51:42";"2023-09-20 16:32:13";00717;;[];[];;;;;;1;0;;;;;;;;;616f3a060affb5826;AMCO;null;623123c52d3bc3406;"Misael Rodriguez";;;;;5ff69cc4e359f82b8;"Enrique Martinez";5ff69cc4e359f82b8;"Enrique Martinez";5ff6932837e4e496b;"Efrain Ramirez";null
6503417951f5cf05f;"Reacondicionamiento de red eléctrica de baja y mediana tensión. Inc. Peñuela.";;;Levantamiento;Levantamiento;10;;2023-09-25;"Hola bonita tarde!!

Estimados proveedores por este medio solicito su apoyo para asistir a levantamiento en sitio.
Reacondicionamiento de red eléctrica de baja y mediana tensión. Inc. Peñuela.

Dia: Miércoles 20/09/2023 a las 10:00 am.
Lugar: Incubadora Peñuela.
Recibe:  Ing. Marcos Jaime García. 271 749 0388

Ubicación Maps: 
https://www.google.com.mx/maps/place/18%C2%B051'32.5%22N+96%C2%B053'25.3%22W/@18.8590353,-96.8909062,185m/data=!3m2!1e3!4b1!4m6!3m5!1s0x0:0x346dfde035c9660a!7e2!8m2!3d18.859034!4d-96.8903587 


Favor de confirmar asistencia por este medio. 

Cotizaciones válidas únicamente con los requisitos:
Dirigidas con atención a Lic. Patricia Sebastian Martinez  
Formato PDF, fecha actualizada, vigencia y firma.
";;"2023-09-14 17:23:05";"2023-09-14 17:23:05";00716;;[];[];;;;;;1;0;;;;;;;;;61de126a0e90950dd;"San Antonio";null;;;;;;;5ff69cc4e359f82b8;"Enrique Martinez";;;5ff69cc4e359f82b8;"Enrique Martinez";null
650204a007779813a;"Red eléctrica de planta de emergencia sección 1 de progreso 1 a bascula de pesaje";;;Proposal;Proposal;50;;2023-09-14;"Estimados por este medio solicito su apoyo para cotizar el siguiente alcance
SERVICIO DE RED ELECTRICA DE PLANTA DE EMERGENCIA SECCION 1 A BASCULA DE PESAJE  
Favor de enviar licitación a  más tardar el día jueves antes de las  12:00 pm 
";;"2023-09-13 18:51:12";"2023-09-15 22:55:29";00715;;[];[];;;;;;1;0;;;;;;;;;61de126a0e90950dd;"San Antonio";null;;;;;;;5ff69cc4e359f82b8;"Enrique Martinez";5ff69cc4e359f82b8;"Enrique Martinez";5ff69cc4e359f82b8;"Enrique Martinez";null
65008e2172397bbfe;"Integracion de Red equipos pulpa aséptica, monoblock y esterilizador";;;Proposal;Proposal;50;;2023-09-15;;;"2023-09-12 16:13:21";"2023-09-15 22:55:17";00714;;[];[];;;;;;1;0;;;;;;;;;627ebc3f025339ce6;Citrofrut;null;;;;;;;5ff69cc4e359f82b8;"Enrique Martinez";5ff69cc4e359f82b8;"Enrique Martinez";5ff69cc4e359f82b8;"Enrique Martinez";null
64fba42049df52c64;"Mantenimiento de baño de sala de capacitación";;;Proposal;Proposal;50;;2023-09-12;;;"2023-09-08 22:45:52";"2023-11-25 01:04:15";00713;;[];[];;;;;;1;0;;;;;;;;;5ff65b1c3a52d37e3;Cargill;null;;;;;;;5ff69cc4e359f82b8;"Enrique Martinez";5ff69cc4e359f82b8;"Enrique Martinez";623cc74b7a6ac09f7;"Eduardo Espinosa";null
64fba3aed125f4140;"Arrancados sirius 3R";;;Levantamiento;Levantamiento;10;;2023-09-12;;;"2023-09-08 22:43:58";"2023-09-08 22:43:58";00712;;[];[];;;;;;1;0;;;;;;;;;5ff65b1c3a52d37e3;Cargill;null;;;;;;;5ff69cc4e359f82b8;"Enrique Martinez";;;5ff69cc4e359f82b8;"Enrique Martinez";null
64fba3205444536c3;"Modulos Siwarex";;;Levantamiento;Levantamiento;10;;2023-09-12;;;"2023-09-08 22:41:36";"2023-09-08 22:41:36";00711;;[];[];;;;;;1;0;;;;;;;;;6090975514143455b;"AB Mauri";null;;;;;;;5ff69cc4e359f82b8;"Enrique Martinez";;;5ff69cc4e359f82b8;"Enrique Martinez";null
64fba191412f6ec58;"Banco de baterias plomo-calcio";;;Levantamiento;Levantamiento;10;;2023-09-12;;;"2023-09-08 22:34:57";"2023-09-08 22:34:57";00710;;[];[];;;;;;1;0;;;;;;;;;64c92f848a30c3311;"Laguna Verde CFE";null;;;;;;;5ff69cc4e359f82b8;"Enrique Martinez";;;5ff69cc4e359f82b8;"Enrique Martinez";null
64fa169881e92fec1;"PMC3 Estación1 Cambio de motor de DC a AC";;;Levantamiento;Levantamiento;10;;2023-09-29;"De: MORALES V. Gerardo TAMSAVER 
Enviado el: martes, 5 de septiembre de 2023 04:54 p. m.
Para: ventas@inamexa.com
Asunto: PMC3 Estación1 - Cambio de motor de DC a AC
 
Comparto la Información de la propuesta para el cambio de motor de la Est.1 de la Roscadora PMC3,
Favor de revisar.
 
Compact Drive System, S120 AC/AC
Suministro y montaje de SINAMICS CONTROL UNIT CU320-2 PN WITHOUT COMPACT FLASH CARD, 6SL3040-1MA01-0AA0. (1 pieza)
Suministro y montaje de SINAMICS S120 CompactFlash card without performance expansion incl. licensing (Certificate of License, stored on the card) V5.2 Service Pack 3, 6SL3054-0FC30-1BA0. (1 pieza)
Suministro y montaje de CUA31 Control Unit Adapter for PM340/PM240-2 Power Modules, 6SL3040-0PA00-0AA1. (1 pieza)
Suministro y montaje de SINAMICS TERMINAL MODULE TM31 ADD ON BOARD FOR SINAMICS WITH DIGITAL AND ANALOG IN- AND OUTPUTS IP20 FOR CAP RAIL MOUNTING, 6SL3055-0AA00-3AA1. (2 piezas)
Suministro y montaje de Signal cable pre-assembled type: 6FX2002-1DC00 (SINAMICS Drive CLiQ) Connector IP20/IP20, without 24 V Length (m)= 0 + 0 + 8 + 0, 6FX2002-1DC00-1AJ0, (3 piezas)
Suministro y montaje de SINAMICS DRIVE-CLIQ CABLE IP20/IP20 LENGTH: 0.16 M, 6SL3060-4AD00-0AA0, (1 pieza)
Suministro y montaje de SINAMICS DRIVE-CLIQ CABLE IP20/IP20 LENGTH: 0.31 M, 6SL3060-4AK00-0AA0, (1 pieza)
 
Estación 1 / Supply System
 
Suministro y montaje de SINAMICS/MICROMASTER PX LINE REACTOR INPUT: 3AC 380-480 V, 50/60 HZ 224 A, 6SL3000-0CE32-3AA0, (1 pieza)
Suministro y montaje de SINAMICS S120 CONVERTER POWER MODULE 3AC 380-480V, 50/60HZ, 210A (110 KW) INTERNAL AIR COOLING FRAME SIZE: CHASSIS SUPPORT OF THE EXTENDED SAFETY INTEGRATED FUNCTIONS INCL. DRIVE-CLIQ CABLE AND MOUNTING PLATE FOR CU310, 6SL3310-1TE32-1AA3, (1 pieza)
Suministro y montaje de SINAMICS BRAKING RESISTOR INPUT: 600 V DC OUTPUT: 125kW/15S 100KW/20S 4,4 OHM, 6SL3000-1BE31-3AA0, (1 pieza)
Suministro y montaje de SINAMICS BRAKING MODULE INPUT: 600 V DC OUTPUT: 125 KW/15 S FOR CHASSIS UNIT, 6SL3300-1AE31-3AA0, (1 pieza)
 
Suministro y montaje de Power cable sold by the meter type: 6FX5008-1BB50 4x 50 C UL/CSA, DESINA MOTION-CONNECT 500 Type of delivery: to 9 m ring from 10 m drum Dmax=38.0 mm, Length (m)= 0 + 40 + 0 + 0, 6FX5008-1BB50-1EA0, (2 piezas)
Suministro y montaje de Power cable sold by the meter type: 6FX5008-1BB11 4x 1.5 C UL/CSA, DESINA MOTION-CONNECT 500 Type of delivery: Ring Dmax=8.4 mm, Length (m)=50, 6FX5008-1BB11-1FA0, (1 pieza)
Suministro y montaje de SINAMICS SMC30 Sensor Module For incremental encoder: TTL/HTL or combi-encoder SSI with incremental tracks or encoder SSI without incremental signals/ without DRIVE-CLiQ cable 30 mm overall width, 6SL3055-0AA00-5CA2, (1 pieza)
Suministro y montaje SINAMICS DRIVE-CLIQ CABLE IP20/IP20 LENGTH: 0.60 M, 6SL3060-4AU00-0AA0, (1 pieza)
Suministro y montaje de Signal cable pre-assembled (HTL in motor 1-ph.) 4x 2x 0.34+4x 0.5 C UL/CSA, DESINA MOTION-CONNECT 500 Dmax=9.3 mm TYPE: 6FX5002-2AH00 LENGTH (M) = 0 + 40 + 0 + 0, 6FX5002-2AH00-1EA0, (1 pieza)
Suministro de SIMOTICS M Compact asynchronous motor 1000 rpm, 92 kW, 879 Nm, 194 A, 340 V 1150 rpm, 105 kW, 872 Nm, 192 A, 390 V 1350 rpm, 120 kW, 849 Nm, 188 A, 460 V Forced ventilation Direction of air flow NDE-->DE Degree of protection IP55 Incremental encoder HTL 1024 S/R (encoder HTL1024S/R) With temperature sensor Pt1000 DESIGN IM B3 (IMB6, IMB7, IMB8, IMV6) SHAFT WITH FITTED KEY FULL-KEY BALANCING BEARING: GREATER CANTILEVER FORCES; VIBRATION SEVERITY GRADE R/A; SHAFT AND FLANGE ACCURACY GR. R TERMINAL BOX (ABOVE) CABLE ENTRY ON THE RIGHT SIGNAL CONNECTION D-END, 1PH8226-1HD10-1FA2-z G14+K24L00, (1 pieza)
Suministro de mano de obra y puesta en marcha que incluye:
- Los materiales necesarios para el armado de gabinetes marca Rittal
- Montaje de Gabinetes en Sitio
- Cableado de potencia y señal de los motores de las estaciones
- Interconectado de señales entre ECS y Sistema sinamics
- Motores principales 1PH8
- Unidad de control CU320-2PN
- Bloques de potencia para motores principales
- Protecciones de baja para drives.
- Personal de seguridad
- Puesta en marcha de accionamientos
- Envío de gabinetes armados a planta del cliente
 
Suministro de diagramas eléctricos, planos eléctricos y esquemáticos de la distribución de los tableros
 
Capacitación del personal
 
";;"2023-09-07 18:29:44";"2023-09-07 18:29:44";00709;;[];[];;;;;;1;0;;;;;;;;;64fa162be2fb5a3fc;Tamsa;null;;;;;;;5ff69cc4e359f82b8;"Enrique Martinez";;;64bef18dced294ba9;"Carlos Calderon";null
64f6802ba8866078d;"Instalacion electrica climas Rougier";;;Levantamiento;Levantamiento;10;;2023-09-08;;;"2023-09-05 01:11:07";"2023-09-05 01:11:07";00708;;[];[];;;;;;1;0;;;;;;;;;;;null;;;;;;;5ff69cc4e359f82b8;"Enrique Martinez";;;64495e52094e77ce7;"Nelson Lara";null
64f6800831145bc10;"Alimentación equipos paquete";;;Levantamiento;Levantamiento;10;;2023-09-08;;;"2023-09-05 01:10:32";"2023-09-05 01:10:32";00707;;[];[];;;;;;1;0;;;;;;;;;64f680030fc455872;PGR;null;;;;;;;5ff69cc4e359f82b8;"Enrique Martinez";;;5ff69cc4e359f82b8;"Enrique Martinez";null
64f67fd68467846dc;"Techado nave de vias";;;Levantamiento;Levantamiento;10;;2023-09-08;;;"2023-09-05 01:09:42";"2023-09-05 01:09:42";00706;;[];[];;;;;;1;0;;;;;;;;;5ff65b1c3a52d37e3;Cargill;null;;;;;;;5ff69cc4e359f82b8;"Enrique Martinez";;;623cc74b7a6ac09f7;"Eduardo Espinosa";null
64f67f6f4091e5b12;"Iluminación patio de maniobras";;;Levantamiento;Levantamiento;10;;2023-09-04;;;"2023-09-05 01:07:59";"2023-09-05 01:09:08";00705;;[];[];;;;;;1;0;;;;;;2023-09-08;;;5ff65b1c3a52d37e3;Cargill;null;;;;;;;5ff69cc4e359f82b8;"Enrique Martinez";5ff69cc4e359f82b8;"Enrique Martinez";64495e52094e77ce7;"Nelson Lara";null
64f655d63cf1c9cbe;"Modulos Sentron Pac";;;Proposal;Proposal;50;;2023-09-08;;;"2023-09-04 22:10:30";"2023-09-15 22:55:02";00704;;[];[];;;;;;1;0;;;;;;;;;627ebc3f025339ce6;Citrofrut;null;64f6559764e938f06;"Ivan Escobar Hernandez";;;;;5ff69cc4e359f82b8;"Enrique Martinez";5ff69cc4e359f82b8;"Enrique Martinez";5ff69cc4e359f82b8;"Enrique Martinez";null
64f655a1cc915d161;"Suministro de Tablero 3WL Pac Siemens 3200Amps";;;Proposal;Proposal;50;;2023-09-08;;;"2023-09-04 22:09:37";"2023-09-15 22:54:47";00703;;[];[];;;;;;1;0;;;;;;;;;627ebc3f025339ce6;Citrofrut;null;64f6559764e938f06;"Ivan Escobar Hernandez";;;;;5ff69cc4e359f82b8;"Enrique Martinez";5ff69cc4e359f82b8;"Enrique Martinez";5ff69cc4e359f82b8;"Enrique Martinez";null
64f6135c03fe88917;"Inst. elect. cargadores bateria";;;Levantamiento;Levantamiento;10;;2023-09-08;;;"2023-09-04 17:26:52";"2023-09-04 17:26:52";00702;;[];[];;;;;;1;0;;;;;;;;;64c2ab24abd6b0d6f;"HAL Horizon Autologistic";null;;;;;;;5ff69cc4e359f82b8;"Enrique Martinez";;;5ff69cc4e359f82b8;"Enrique Martinez";null
64f28c0b37d312bdf;"Valvulas SDV´s";;;Levantamiento;Levantamiento;10;;2023-09-08;"*Te envió nuevamente información de la plataforma PIT-A, te comento son 4 SDV´S, 2 de 20” de diámetro 600 libras, 1 de 12” de diámetro 600 libras y 1 de 16” de diámetro 600 libras.*";;"2023-09-02 01:12:43";"2023-09-02 01:16:06";00700;;[];[];;;;;;1;0;;;;;;;;;64f28bfa4a0fc94d3;"Industrias W";null;;;;;;;5ff69cc4e359f82b8;"Enrique Martinez";5ff69cc4e359f82b8;"Enrique Martinez";5ff69cc4e359f82b8;"Enrique Martinez";null
64f2748724a88d0b1;"NIVELACION DE POSTE DE CONCRETO NUECES 1";;;Proposal;Proposal;50;;2023-10-01;;;"2023-09-01 23:32:23";"2023-09-02 01:34:46";00699;;[];[];;;;;;1;0;;;;;;;;;61de126a0e90950dd;"San Antonio";null;;;;;;;5ff69cc4e359f82b8;"Enrique Martinez";5ff69cc4e359f82b8;"Enrique Martinez";5ff69cc4e359f82b8;"Enrique Martinez";null
64f1261cb9173cf74;"Terminal Remoto";;;Levantamiento;Levantamiento;10;;2023-09-05;"Hola buen día, 

Estoy buscando esta Terminal Remoto SRT2-OD16-1 Mca. Omron, 
Quedo pendiente de cualquier información 
Saludos, 


Cecilia Mónico Collado 
         Planeador-comprador

Mit freundlichen Grüssen / Best regards / Viele Grüße / Saludos Cordiales

SCHOTT de México , S.A. de C.V.
carret. México a Veracruz km 349 s/n
Venta Parada  Amatlán de los
Reyes, Veracruz.     c.p   94954
Tel.    +52 (271) 716 6690  Ext.   326
Fax.   +52 (271) 716 6515
Email: cecilia.monico@schott.com
http://www.schott.com/pharmaceutical
";;"2023-08-31 23:45:32";"2023-08-31 23:45:32";00698;;[];[];;;;;;1;0;;;;;;;;;64f125f1a6af72f2e;"Schott de Mexico";null;64f12604d6636b81f;"Cecilia Monico";;;;;5ff69cc4e359f82b8;"Enrique Martinez";;;5ff69cc4e359f82b8;"Enrique Martinez";null
64f1172364e3bd19c;"Alimentador alumbrado cobertura 1";;;Proposal;Proposal;50;;2023-09-07;;;"2023-08-31 22:41:39";"2023-11-25 01:04:06";00697;;[];[];;;;;;1;0;;;;;;;;;616f3a060affb5826;AMCO;null;;;;;;;5ff69cc4e359f82b8;"Enrique Martinez";5ff69cc4e359f82b8;"Enrique Martinez";5ff69cc4e359f82b8;"Enrique Martinez";null
64ee2de37672dd248;"AIRES ACONDICIONADOS PTAS";;;Proposal;Proposal;50;;2023-09-01;;;"2023-08-29 17:41:55";"2023-09-02 01:34:31";00696;;[];[];;;;;;1;0;;;;;;;;;64ee2ddd118b7bf87;Naturgy;null;;;;;;;5ff69cc4e359f82b8;"Enrique Martinez";5ff69cc4e359f82b8;"Enrique Martinez";5ff69cc4e359f82b8;"Enrique Martinez";null
64e8f1ffbcba461f2;"Unidad de ventilador EVRC.2201";;;Proposal;Proposal;50;;2023-08-29;"Buenas tardes,

Nuestra empresa está necesitando los siguientes ítems y quisiéramos que nos brindarán la cotización de estos:


Unidad de ventilador EVRC.2201 MA-VIB 200 mm ohne (motor+rejilla)	2	PCS

";;"2023-08-25 18:25:03";"2023-09-02 01:33:59";00695;;[];[];;;;;;1;0;;;;;;;;;64494d4a4a4da39e8;"Bredero Shaw Mexico";null;;;;;;;5ff69cc4e359f82b8;"Enrique Martinez";5ff69cc4e359f82b8;"Enrique Martinez";5ff69cc4e359f82b8;"Enrique Martinez";null
64e8d0a91749838f3;"Mantenimiento de Laboratorio Físico";;;Proposal;Proposal;50;;2023-09-01;;;"2023-08-25 16:02:49";"2023-11-25 01:03:57";00694;;[];[];;;;;;1;0;;;;;;;;;5ff65b1c3a52d37e3;Cargill;null;;;;;;;5ff69cc4e359f82b8;"Enrique Martinez";5ff69cc4e359f82b8;"Enrique Martinez";623cc74b7a6ac09f7;"Eduardo Espinosa";null
64e8d08aae2e72aa9;"Construcción de baños de contratistas de mujeres";;;Economica;Economica;30;;2023-08-31;;;"2023-08-25 16:02:18";"2023-09-08 21:52:25";00693;;[];[];;;;;;1;0;;;;;;;;;5ff65b1c3a52d37e3;Cargill;null;;;;;;;5ff69cc4e359f82b8;"Enrique Martinez";623cc74b7a6ac09f7;"Eduardo Espinosa";623cc74b7a6ac09f7;"Eduardo Espinosa";null
64e8d07476b669cd4;"Mantenimiento de baños de contratistas de hombres";;;Proposal;Proposal;50;;2023-08-31;;;"2023-08-25 16:01:56";"2023-11-25 01:03:10";00692;;[];[];;;;;;1;0;;;;;;;;;5ff65b1c3a52d37e3;Cargill;null;;;;;;;5ff69cc4e359f82b8;"Enrique Martinez";5ff69cc4e359f82b8;"Enrique Martinez";623cc74b7a6ac09f7;"Eduardo Espinosa";null
